Reproducible Research Assignment - Storm Data Analysis
…
The events in the database start in the year 1950 and end in November 2011. In the earlier years of the database there are generally fewer events recorded, most likely due to a lack of good records. More recent years should be considered more complete.

Data Processing

To begin, we set the working directory and download the file onto local drive. We then read the document into R and convert to a tibble using the dplyr package. AS the file is large, I have requested a beep alert when reading is completed.

library(dplyr); library(ggplot2)
setwd('/Users/edmondlowjy/datasciencecoursera/Reproducible-Research/Week\ 4')
download.file(url='https://d396qusza40orc.cloudfront.net/repdata%2Fdata%2FStormData.csv.bz2',destfile='./stormdata.csv.bz2',method='curl')
stormdata=read.csv(file='stormdata.csv.bz2',stringsAsFactors=F); beepr::beep()
stormdata<-tbl_df(stormdata) %>%
  mutate(EVTYPE=trimws(toupper(EVTYPE)))
stormdata

## # A tibble: 902,297 x 37
##    STATE__ BGN_DATE      BGN_TIME TIME_ZONE COUNTY COUNTYNAME STATE EVTYPE
##      <dbl> <chr>         <chr>    <chr>      <dbl> <chr>      <chr> <chr> 
##  1       1 4/18/1950 0: 0130     CST           97 MOBILE     AL    TORNA
##  2       1 4/18/1950 0: 0145     CST            3 BALDWIN    AL    TORNA
##  3       1 2/20/1951 0: 1600     CST           57 FAYETTE    AL    TORNA
##  4       1 6/8/1951 0:0 0900     CST           89 MADISON    AL    TORNA
##  5       1 11/15/1951 0 1500     CST           43 CULLMAN    AL    TORNA
##  6       1 11/15/1951 0 2000     CST           77 LAUDERDALE AL    TORNA
##  7       1 11/16/1951 0 0100     CST            9 BLOUNT     AL    TORNA
##  8       1 1/22/1952 0: 0900     CST          123 TALLAPOOSA AL    TORNA
##  9       1 2/13/1952 0: 2000     CST          125 TUSCALOOSA AL    TORNA
## 10       1 2/13/1952 0: 2000     CST           57 FAYETTE    AL    TORNA
## # ... with 902,287 more rows, and 29 more variables: BGN_RANGE <dbl>,
## #   BGN_AZI <chr>, BGN_LOCATI <chr>, END_DATE <chr>, END_TIME <chr>,
## #   COUNTY_END <dbl>, COUNTYENDN <lgl>, END_RANGE <dbl>, END_AZI <chr>,
## #   END_LOCATI <chr>, LENGTH <dbl>, WIDTH <dbl>, F <int>, MAG <dbl>,
## #   FATALITIES <dbl>, INJURIES <dbl>, PROPDMG <dbl>, PROPDMGEXP <chr>,
## #   CROPDMG <dbl>, CROPDMGEXP <chr>, WFO <chr>, STATEOFFIC <chr>,
## #   ZONENAMES <chr>, LATITUDE <dbl>, LONGITUDE <dbl>, LATITUDE_E <dbl>,
## #   LONGITUDE_ <dbl>, REMARKS <chr>, REFNUM <dbl>
…
rm(list=setdiff(ls(), c("stormdata","event_types","match_table","notmatched")))

With the above matching done, we proceed once again to analyze the health impact by grouping the data into Event Types. The dataframe is arranged in descending order for health impact. A chart of mean health impact is plotted for each Event Type.

health_impact<-stormdata %>%
  select(EVTYPE_mod,FATALITIES,INJURIES) %>%
  filter(EVTYPE_mod %in% event_types) %>%
  mutate(TOTAL=FATALITIES+INJURIES) %>%
  group_by(EVTYPE_mod) %>%
  summarize(IMPACT_MEAN=mean(TOTAL),FATALITIES=sum(FATALITIES),INJURIES=sum(INJURIES),TOTAL=sum(TOTAL)) %>%
  arrange(desc(TOTAL),desc(FATALITIES),desc(INJURIES))
health_impact

## # A tibble: 48 x 5
##    EVTYPE_mod        IMPACT_MEAN FATALITIES INJURIES TOTAL
##    <chr>                   <dbl>      <dbl>    <dbl> <dbl>
##  1 TORNADO                1.60         5658    91364 97022
##  2 THUNDERSTORM WIND      0.0311        704     9371 10075
##  3 EXCESSIVE HEAT         4.98         1922     6525  8447
##  4 FLOOD                  0.278         483     6795  7278
##  5 LIGHTNING              0.384         817     5232  6049
##  6 HEAT                   4.10         1212     2684  3896
##  7 FLASH FLOOD            0.0510       1035     1802  2837
##  8 ICE STORM              1.06           95     2127  2222
##  9 HIGH WIND              0.0862        318     1592  1910
## 10 WILDFIRE               0.401          90     1606  1696
## # ... with 38 more rows
…
    else if(item==''){item=1}
    else if(item=='M'){item=1000000}
    else if (item=='B'){item=1000000000}}))) %>%
  mutate(CROPDMGEXP_mod=as.numeric(sapply(CROPDMGEXP,FUN=function(item){
    if(item=='K'){item=1000}
    else if(item==''){item=1}
    else if(item=='M'){item=1000000}
    else if (item=='B'){item=1000000000}}))) %>%
  mutate(PROPDMG_mod=PROPDMG*PROPDMGEXP_mod,CROPDMG_mod=CROPDMG*CROPDMGEXP_mod,TOTALDMG=PROPDMG_mod+CROPDMG_mod) %>%
  group_by(EVTYPE_mod) %>%
  summarize(MEANDMG=mean(TOTALDMG),PROPDMG=sum(PROPDMG_mod),CROPDMG=sum(CROPDMG_mod),TOTALDMG=sum(TOTALDMG)) %>%
  arrange(desc(TOTALDMG),desc(PROPDMG),desc(CROPDMG))
economic_impact

## # A tibble: 48 x 5
##    EVTYPE_mod             MEANDMG      PROPDMG     CROPDMG     TOTALDMG
##    <chr>                    <dbl>        <dbl>       <dbl>        <dbl>
##  1 FLOOD                 6155275. 150180691657 10847452950 161028144607
##  2 HURRICANE (TYPHOON) 304572241.  85256410010  5506117800  90762527810
##  3 TORNADO                971106.  58541756733   367458360  58909215093
##  4 STORM SURGE/TIDE    117275254.  47964724000      855000  47965579000
##  5 HAIL                    65919.  16018895277  3086633853  19105529130
##  6 FLASH FLOOD            331356.  16906007827  1531607150  18437614977
##  7 DROUGHT               6014787.   1046306000 13972616000  15018922000
##  8 THUNDERSTORM WIND       33723.   9716522307  1189699158  10906221465
##  9 ICE STORM             4303207.   3958682810  5022110000   8980792810
## 10 WILDFIRE              2102185.   8491563500   402781630   8894345130
## # ... with 38 more rows
…
